{
  "id": 34,
  "editBan": true,
  "beginning": true,
  "branche": [
    {
      "id": "2",
      "name": "Анапа, КубаньДемонтаж"
    }
  ],
  "price": {
    "groups": [
      {
        "name": "Асфальт",
        "sum": 3000,
        "min": 0
      },
      {
        "name": "Блок, кирпич",
        "sum": 3750,
        "min": 0
      },
      {
        "name": "Бетон, камень",
        "sum": 5000,
        "min": 0
      },
      {
        "name": "Армированный бетон",
        "sum": 6250,
        "min": 0
      }
    ],
    "items": [
      {
        "instrument": "Cut-n-breake",
        "tip": "220 В",
        "pros": "сухой возможен / мокрый",
        "max": 400
      },
      {
        "instrument": "Бензорез",
        "tip": "Бензин",
        "pros": "сухой возможен / мокрый",
        "max": 150
      },
      {
        "instrument": "Канатная машина",
        "tip": "220 В / 380 В",
        "pros": "сухой возможен / мокрый",
        "max": 4000
      },
      {
        "instrument": "Стенарезная машина",
        "tip": "380 В",
        "pros": "сухой возможен / мокрый",
        "max": 730
      },
      {
        "instrument": "Швонерезчик",
        "tip": "Бензин, дизель, 380 В",
        "pros": "только мокрый",
        "max": 320
      },
      {
        "instrument": "Штроборез с пылесосом",
        "tip": "220 В",
        "pros": "только сухой",
        "max": 120
      }
    ],
    "factors": [
      {
        "code": 1,
        "param": 0.2,
        "name": "Повышенное содержание арматуры (более 150 кг/м3), толщина арматурного стержня 20 мм и более."
      },
      {
        "code": 2.1,
        "param": 0.2,
        "name": "Тяжелый, плотный бетон класса: B25"
      },
      {
        "code": 7.1,
        "param": -0.05,
        "name": "Скидка постоянному клиенту 5%"
      }
    ],
    "result": [
      {
        "k": "Cut-n-breake",
        "v": [
          4800,
          6000,
          8000,
          10000
        ],
        "const": true,
        "constValues": [
          4800,
          6000,
          8000,
          10000
        ]
      },
      {
        "k": "Бензорез",
        "v": [
          3900,
          4875,
          6500,
          8125
        ],
        "const": true,
        "constValues": [
          3900,
          4875,
          6500,
          8125
        ]
      },
      {
        "k": "Канатная машина",
        "v": [
          7200,
          9000,
          12000,
          15000
        ],
        "const": true,
        "constValues": [
          7200,
          9000,
          12000,
          15000
        ]
      },
      {
        "k": "Стенарезная машина",
        "v": [
          4800,
          6000,
          8000,
          10000
        ],
        "const": true,
        "constValues": [
          4800,
          6000,
          8000,
          10000
        ]
      },
      {
        "k": "Швонерезчик",
        "v": [
          3000,
          0,
          5000,
          6250
        ],
        "const": true,
        "constValues": [
          3000,
          0,
          5000,
          6250
        ]
      },
      {
        "k": "Штроборез с пылесосом",
        "v": [
          0,
          3750,
          5000,
          6250
        ],
        "const": true,
        "constValues": [
          0,
          3750,
          5000,
          6250
        ]
      }
    ],
    "params": {
      "branche": "2",
      "type": 2,
      "round": "2",
      "minPrice": 1500
    },
    "comment": ""
  }
}