{
  "item": {
    "sections": [
      {
        "name": "Устройство дверных проемов",
        "items": [
          {
            "work": 1,
            "selectedMaterials": {
              "sideA": {
                "commonMaterialInfo": {
                  "purpose": {
                    "label": "Рядовой",
                    "data": [
                      {
                        "length": 390,
                        "width": 90,
                        "height": 188
                      },
                      {
                        "length": 390,
                        "width": 190,
                        "height": 188
                      }
                    ],
                    "fieldLabel": "Назначение"
                  },
                  "execution": {
                    "label": "по - полнотелый",
                    "data": {},
                    "fieldLabel": "Исполнение"
                  },
                  "aggregate": {
                    "label": "отсев гранитного щебня",
                    "data": {
                      "materialId": 2
                    },
                    "fieldLabel": "Материал крупного / мелкого заполнителя"
                  },
                  "commonName": {
                    "label": "блок керамзитобетонный",
                    "data": {},
                    "fieldLabel": "Общепринятое название изделия"
                  },
                  "faceType": {
                    "label": "рельефный",
                    "data": {},
                    "fieldLabel": "По виду лицевой поверхности"
                  },
                  "useSphere": {
                    "label": "стеновой",
                    "data": {},
                    "fieldLabel": "Область применения"
                  }
                },
                "materialGroupName": "Блок стеновой",
                "priceMaterial": {
                  "name": "Бетон, камень",
                  "sum": 7500,
                  "id": 2
                },
                "masonryType": {
                  "label": "по ширине",
                  "data": {
                    "length": 1,
                    "width": 0,
                    "height": 0,
                    "plaster": 0
                  }
                },
                "proportions": {
                  "length": 390,
                  "width": 190,
                  "height": 188
                },
                "resultDepth": 39,
                "resultDepthFormatted": "39.00"
              },
              "construct": {
                "commonMaterialInfo": {
                  "aggregate": {
                    "label": "керамика",
                    "data": {
                      "materialId": 3
                    },
                    "fieldLabel": "Материал крупного / мелкого заполнителя"
                  },
                  "commonName": {
                    "label": "кирпич керамический",
                    "data": {},
                    "fieldLabel": "Общепринятое название изделия"
                  },
                  "purpose": {
                    "label": "Лицевой",
                    "data": [
                      {
                        "length": 250,
                        "width": 60,
                        "height": 65
                      },
                      {
                        "length": 288,
                        "width": 138,
                        "height": 65
                      },
                      {
                        "length": 288,
                        "width": 138,
                        "height": 88
                      }
                    ],
                    "fieldLabel": "Назначение"
                  },
                  "faceType": {
                    "label": "рельефный",
                    "data": {},
                    "fieldLabel": "По виду лицевой поверхности"
                  },
                  "execution": {
                    "label": "по - полнотелый",
                    "data": {},
                    "fieldLabel": "Исполнение"
                  }
                },
                "materialGroupName": "Кирпич КР керамический",
                "priceMaterial": {
                  "name": "Армированный бетон",
                  "sum": 9000,
                  "id": 3
                },
                "proportions": {
                  "length": 288,
                  "width": 138,
                  "height": 65
                },
                "masonryType": {
                  "label": "поперек",
                  "data": {
                    "length": 1,
                    "width": 0,
                    "height": 0,
                    "plaster": 0
                  }
                },
                "resultDepth": 28.8,
                "resultDepthFormatted": "28.80"
              },
              "sideB": null,
              "description": "Блок керамзитобетонный / Кирпич керамический",
              "usedPriceMaterials": "Бетон, камень / Армированный бетон"
            },
            "diameterName": 150,
            "diameterPrice": 78.9,
            "glubina": 67.8,
            "kolvo": 1,
            "vars": {
              "plusSum": "",
              "minusSum": "",
              "plusStr": "",
              "minusStr": "",
              "checkbox": {}
            },
            "sumItem": 78.9,
            "sumItogo": 78.9,
            "sum": 5349.42
          },
          {
            "work": 1,
            "selectedMaterials": {
              "sideA": null,
              "construct": {
                "commonMaterialInfo": {
                  "aggregate": {
                    "label": "керамика",
                    "data": {
                      "materialId": 2
                    },
                    "fieldLabel": "Материал крупного / мелкого заполнителя"
                  },
                  "purpose": {
                    "label": "Рядовой",
                    "data": [
                      {
                        "length": 510,
                        "width": 120,
                        "height": 219
                      },
                      {
                        "length": 510,
                        "width": 200,
                        "height": 219
                      },
                      {
                        "length": 398,
                        "width": 250,
                        "height": 219
                      },
                      {
                        "length": 253,
                        "width": 380,
                        "height": 219
                      },
                      {
                        "length": 500,
                        "width": 80,
                        "height": 219
                      },
                      {
                        "length": 500,
                        "width": 120,
                        "height": 219
                      },
                      {
                        "length": 400,
                        "width": 200,
                        "height": 219
                      },
                      {
                        "length": 375,
                        "width": 250,
                        "height": 219
                      },
                      {
                        "length": 250,
                        "width": 200,
                        "height": 219
                      },
                      {
                        "length": 250,
                        "width": 380,
                        "height": 219
                      },
                      {
                        "length": 250,
                        "width": 440,
                        "height": 219
                      },
                      {
                        "length": 250,
                        "width": 510,
                        "height": 219
                      }
                    ],
                    "fieldLabel": "Назначение"
                  },
                  "commonName": {
                    "label": "крупноформатный поризованный керамический камень, PO®OMAX™",
                    "data": {},
                    "fieldLabel": "Общепринятое название изделия"
                  },
                  "faceType": {
                    "label": "гладкий",
                    "data": {},
                    "fieldLabel": "По виду лицевой поверхности"
                  },
                  "useSphere": {
                    "label": "перегородочный",
                    "data": {},
                    "fieldLabel": "Область применения"
                  }
                },
                "materialGroupName": "Камень КМ керамический",
                "priceMaterial": {
                  "name": "Бетон, камень",
                  "sum": 7500,
                  "id": 2
                },
                "masonryType": {
                  "label": "по длине",
                  "data": {
                    "length": 0,
                    "width": 1,
                    "height": 0,
                    "plaster": 0
                  }
                },
                "proportions": {
                  "length": 510,
                  "width": 120,
                  "height": 219
                },
                "resultDepth": 12,
                "resultDepthFormatted": "12.00"
              },
              "sideB": null,
              "description": "Крупноформатный поризованный керамический камень, PO®OMAX™",
              "usedPriceMaterials": "Бетон, камень"
            },
            "diameterName": 90,
            "diameterPrice": 21.7,
            "glubina": 12,
            "kolvo": 1,
            "vars": {
              "plusSum": "",
              "minusSum": "",
              "plusStr": "",
              "minusStr": "",
              "checkbox": {}
            },
            "sumItem": 21.7,
            "sumItogo": 21.7,
            "sum": 260.4
          }
        ],
        "itogo": 5609.82
      }
    ],
    "nds": false,
    "priceId": {
      "type_1": "24",
      "type_2": null,
      "type_3": "19",
      "type_4": "20"
    },
    "minPrice": 1500,
    "isMinPriceEdited": false,
    "options": false
  },
  "date_create": "10.04.2017",
  "user_id": "8",
  "id": "400"
}