{
  "item": {
    "sections": [
      {
        "name": "Устройство дверных проемов",
        "items": [
          {
            "itemName": "Алмазное сверление Ø14. ",
            "work": 1,
            "selectedMaterials": {
              "sideA": null,
              "construct": {
                "commonMaterialInfo": {
                  "purpose": {
                    "label": "лицевой",
                    "data": {
                      "manufacturers": [
                        {
                          "label": "по Госту",
                          "proportionsArray": [
                            {
                              "length": 250,
                              "width": 60,
                              "height": 65,
                              "label": "евро",
                              "nf": 0.5,
                              "nf_extra": 0
                            },
                            {
                              "length": 250,
                              "width": 85,
                              "height": 65,
                              "label": "евро",
                              "nf": 0.7,
                              "nf_extra": 0
                            },
                            {
                              "length": 250,
                              "width": 120,
                              "height": 65,
                              "label": "одинарный",
                              "nf": 1,
                              "nf_extra": 0
                            },
                            {
                              "length": 250,
                              "width": 120,
                              "height": 88,
                              "label": "утолщенный",
                              "nf": 1.4,
                              "nf_extra": 0
                            }
                          ]
                        }
                      ],
                      "defaultManufacturerIndex": 0,
                      "orderKey": "width"
                    },
                    "fieldLabel": "Назначение"
                  }
                },
                "materialGroupName": "кирпич КР керамический",
                "priceMaterial": {
                  "name": "Блок, кирпич",
                  "sum": 6000,
                  "min": 18,
                  "id": 1,
                  "cost": 18
                },
                "masonryType": {
                  "label": "на ложок",
                  "data": {
                    "length": 0,
                    "width": 0,
                    "height": 1,
                    "plaster": 0
                  }
                },
                "proportions": {
                  "length": 250,
                  "width": 85,
                  "height": 65,
                  "label": "евро",
                  "nf": 0.7,
                  "nf_extra": 0,
                  "manufacturerIndex": 0
                },
                "resultDepth": 6.5,
                "resultDepthFormatted": "6.50",
                "descriptionKeys": [
                  "field0",
                  "aggregate",
                  "purpose",
                  "faceType",
                  "useSphere",
                  "execution"
                ],
                "facture": "wood",
                "generatedDescription": "Кирпич КР керамический, лицевой",
                "priceMaterialDescription": "Блок, кирпич",
                "checkbox": {},
                "sumItem": 18,
                "vars": {
                  "plusSum": "",
                  "minusSum": "",
                  "plusStr": "",
                  "minusStr": ""
                },
                "discount": 0,
                "sumItogo": 18,
                "sum": 117
              },
              "sideB": {
                "commonMaterialInfo": {
                  "purpose": {
                    "label": "рядовой",
                    "data": {
                      "manufacturers": [
                        {
                          "label": "Производитель",
                          "proportionsArray": [
                            {
                              "length": 390,
                              "width": 90,
                              "height": 188,
                              "nf": 3.4,
                              "nf_extra": 0,
                              "label": ""
                            },
                            {
                              "length": 390,
                              "width": 120,
                              "height": 188,
                              "nf": 4.5,
                              "nf_extra": 0,
                              "label": ""
                            },
                            {
                              "length": 390,
                              "width": 190,
                              "height": 188,
                              "nf": 7.1,
                              "nf_extra": 0,
                              "label": ""
                            },
                            {
                              "length": 390,
                              "width": 320,
                              "height": 188,
                              "nf": 12,
                              "nf_extra": 0,
                              "label": ""
                            }
                          ]
                        }
                      ],
                      "defaultManufacturerIndex": 0
                    },
                    "fieldLabel": "Назначение"
                  }
                },
                "materialGroupName": "теплошумо изоляция",
                "priceMaterial": {
                  "name": "Блок, кирпич",
                  "sum": 6000,
                  "min": 18,
                  "id": 1,
                  "cost": 18
                },
                "masonryType": {
                  "label": "по длине",
                  "data": {
                    "length": 0,
                    "width": 1,
                    "height": 0,
                    "plaster": 0
                  }
                },
                "proportions": {
                  "length": 390,
                  "width": 90,
                  "height": 188,
                  "nf": 3.4,
                  "nf_extra": 0,
                  "label": "",
                  "manufacturerIndex": 0
                },
                "resultDepth": 9,
                "resultDepthFormatted": "9.00",
                "descriptionKeys": [
                  "commonName",
                  "aggregate",
                  "purpose",
                  "faceType"
                ],
                "facture": "metal",
                "generatedDescription": "Теплошумо изоляция, рядовой",
                "priceMaterialDescription": "Блок, кирпич",
                "checkbox": {},
                "sumItem": 18,
                "vars": {
                  "plusSum": "",
                  "minusSum": "",
                  "plusStr": "",
                  "minusStr": ""
                },
                "discount": 0,
                "sumItogo": 18,
                "sum": 162
              },
              "description": "Кирпич КР керамический, лицевой.</br>Теплошумо изоляция, рядовой.</br>",
              "usedPriceMaterials": "Блок, кирпич</br>"
            },
            "diameterName": 14,
            "glubina": 15.5,
            "kolvo": 1,
            "vars": {
              "plusSum": "",
              "minusSum": "",
              "plusStr": "",
              "minusStr": "",
              "checkbox": {}
            },
            "sumItem": 36,
            "sumItogo": 36,
            "sum": 279
          }
        ],
        "itogo": 279
      }
    ],
    "nds": false,
    "priceId": {
      "type_1": "27",
      "type_2": "34",
      "type_3": "32",
      "type_4": "33"
    },
    "minPrice": 1999,
    "isMinPriceEdited": false,
    "options": false
  },
  "date_create": "09.03.2017",
  "user_id": "0",
  "id": "87"
}